Lab 2/Working Bonus/simulation/qsim/Bonus.msim.vcd
$comment
	File created using the following command:
		vcd file Bonus.msim.vcd -direction
$end
$date
	Mon Nov 10 12:00:08 2025
$end
$version
	ModelSim Version 2020.1
$end
$timescale
	1ps
$end

$scope module celluletype_vhd_vec_tst $end
$var wire 1 ! A $end
$var wire 1 " B $end
$var wire 1 # F_C $end
$var wire 1 $ F_D $end
$var wire 1 % x $end
$var wire 1 & y $end

$scope module i1 $end
$var wire 1 ' gnd $end
$var wire 1 ( vcc $end
$var wire 1 ) unknown $end
$var wire 1 * devoe $end
$var wire 1 + devclrn $end
$var wire 1 , devpor $end
$var wire 1 - ww_devoe $end
$var wire 1 . ww_devclrn $end
$var wire 1 / ww_devpor $end
$var wire 1 0 ww_A $end
$var wire 1 1 ww_B $end
$var wire 1 2 ww_x $end
$var wire 1 3 ww_y $end
$var wire 1 4 ww_F_C $end
$var wire 1 5 ww_F_D $end
$var wire 1 6 \~QUARTUS_CREATED_ADC1~_CHSEL_bus\ [4] $end
$var wire 1 7 \~QUARTUS_CREATED_ADC1~_CHSEL_bus\ [3] $end
$var wire 1 8 \~QUARTUS_CREATED_ADC1~_CHSEL_bus\ [2] $end
$var wire 1 9 \~QUARTUS_CREATED_ADC1~_CHSEL_bus\ [1] $end
$var wire 1 : \~QUARTUS_CREATED_ADC1~_CHSEL_bus\ [0] $end
$var wire 1 ; \~QUARTUS_CREATED_ADC2~_CHSEL_bus\ [4] $end
$var wire 1 < \~QUARTUS_CREATED_ADC2~_CHSEL_bus\ [3] $end
$var wire 1 = \~QUARTUS_CREATED_ADC2~_CHSEL_bus\ [2] $end
$var wire 1 > \~QUARTUS_CREATED_ADC2~_CHSEL_bus\ [1] $end
$var wire 1 ? \~QUARTUS_CREATED_ADC2~_CHSEL_bus\ [0] $end
$var wire 1 @ \~QUARTUS_CREATED_GND~I_combout\ $end
$var wire 1 A \~QUARTUS_CREATED_UNVM~~busy\ $end
$var wire 1 B \~QUARTUS_CREATED_ADC1~~eoc\ $end
$var wire 1 C \~QUARTUS_CREATED_ADC2~~eoc\ $end
$var wire 1 D \F_C~output_o\ $end
$var wire 1 E \F_D~output_o\ $end
$var wire 1 F \A~input_o\ $end
$var wire 1 G \y~input_o\ $end
$var wire 1 H \B~input_o\ $end
$var wire 1 I \x~input_o\ $end
$var wire 1 J \F_C~0_combout\ $end
$var wire 1 K \F_D~0_combout\ $end
$upscope $end
$upscope $end
$enddefinitions $end
#0
$dumpvars
0!
0"
0#
0$
0%
0&
0'
1(
x)
1*
1+
1,
1-
1.
1/
00
01
02
03
04
05
0@
zA
zB
zC
0D
0E
0F
0G
0H
0I
0J
0K
06
07
08
09
0:
0;
0<
0=
0>
0?
$end
#40000
1"
11
1H
#80000
0"
1!
01
10
1F
0H
#120000
1"
11
1H
#160000
0"
0!
1&
01
00
13
1G
0F
0H
1J
1D
14
1#
#200000
1"
11
1H
1K
1E
15
1$
#240000
0"
1!
01
10
1F
0H
0J
0K
0E
0D
05
04
0$
0#
#280000
1"
11
1H
1J
1D
14
1#
#320000
0"
0!
0&
1%
01
00
03
12
1I
0G
0F
0H
#360000
1"
11
1H
0J
0D
04
0#
#400000
0"
1!
01
10
1F
0H
1J
1K
1E
1D
15
14
1$
1#
#440000
1"
11
1H
0K
0E
05
0$
#480000
0"
0!
1&
01
00
13
1G
0F
0H
1K
1E
15
1$
#520000
1"
11
1H
#560000
0"
1!
01
10
1F
0H
#600000
1"
11
1H
#640000
0"
0!
0&
0%
01
00
03
02
0I
0G
0F
0H
0J
0K
0E
0D
05
04
0$
0#
#680000
1"
11
1H
#720000
0"
1!
01
10
1F
0H
#760000
1"
11
1H
#800000
0"
0!
1&
01
00
13
1G
0F
0H
1J
1D
14
1#
#840000
1"
11
1H
1K
1E
15
1$
#880000
0"
1!
01
10
1F
0H
0J
0K
0E
0D
05
04
0$
0#
#920000
1"
11
1H
1J
1D
14
1#
#960000
0"
0!
0&
1%
01
00
03
12
1I
0G
0F
0H
