Lab 4/simulation/qsim/laboratoire4.msim.vcd
$comment
	File created using the following command:
		vcd file laboratoire4.msim.vcd -direction
$end
$date
	Wed Nov 12 17:47:34 2025
$end
$version
	ModelSim Version 2020.1
$end
$timescale
	1ps
$end

$scope module p1_vhd_vec_tst $end
$var wire 1 ! A [0] $end
$var wire 1 " A [1] $end
$var wire 1 # A [2] $end
$var wire 1 $ A [3] $end
$var wire 1 % A [4] $end
$var wire 1 & A [5] $end
$var wire 1 ' A [6] $end
$var wire 1 ( A [7] $end
$var wire 1 ) A [8] $end
$var wire 1 * A [9] $end
$var wire 1 + A [10] $end
$var wire 1 , A [11] $end
$var wire 1 - B [0] $end
$var wire 1 . B [1] $end
$var wire 1 / B [2] $end
$var wire 1 0 B [3] $end
$var wire 1 1 B [4] $end
$var wire 1 2 B [5] $end
$var wire 1 3 B [6] $end
$var wire 1 4 B [7] $end
$var wire 1 5 B [8] $end
$var wire 1 6 B [9] $end
$var wire 1 7 B [10] $end
$var wire 1 8 B [11] $end
$var wire 1 9 S [0] $end
$var wire 1 : S [1] $end
$var wire 1 ; S [2] $end
$var wire 1 < S [3] $end
$var wire 1 = S [4] $end
$var wire 1 > S [5] $end
$var wire 1 ? S [6] $end
$var wire 1 @ S [7] $end
$var wire 1 A S [8] $end
$var wire 1 B S [9] $end
$var wire 1 C S [10] $end
$var wire 1 D S [11] $end

$scope module i1 $end
$var wire 1 E gnd $end
$var wire 1 F vcc $end
$var wire 1 G unknown $end
$var wire 1 H devoe $end
$var wire 1 I devclrn $end
$var wire 1 J devpor $end
$var wire 1 K ww_devoe $end
$var wire 1 L ww_devclrn $end
$var wire 1 M ww_devpor $end
$var wire 1 N ww_A [0] $end
$var wire 1 O ww_A [1] $end
$var wire 1 P ww_A [2] $end
$var wire 1 Q ww_A [3] $end
$var wire 1 R ww_A [4] $end
$var wire 1 S ww_A [5] $end
$var wire 1 T ww_A [6] $end
$var wire 1 U ww_A [7] $end
$var wire 1 V ww_A [8] $end
$var wire 1 W ww_A [9] $end
$var wire 1 X ww_A [10] $end
$var wire 1 Y ww_A [11] $end
$var wire 1 Z ww_B [0] $end
$var wire 1 [ ww_B [1] $end
$var wire 1 \ ww_B [2] $end
$var wire 1 ] ww_B [3] $end
$var wire 1 ^ ww_B [4] $end
$var wire 1 _ ww_B [5] $end
$var wire 1 ` ww_B [6] $end
$var wire 1 a ww_B [7] $end
$var wire 1 b ww_B [8] $end
$var wire 1 c ww_B [9] $end
$var wire 1 d ww_B [10] $end
$var wire 1 e ww_B [11] $end
$var wire 1 f ww_S [0] $end
$var wire 1 g ww_S [1] $end
$var wire 1 h ww_S [2] $end
$var wire 1 i ww_S [3] $end
$var wire 1 j ww_S [4] $end
$var wire 1 k ww_S [5] $end
$var wire 1 l ww_S [6] $end
$var wire 1 m ww_S [7] $end
$var wire 1 n ww_S [8] $end
$var wire 1 o ww_S [9] $end
$var wire 1 p ww_S [10] $end
$var wire 1 q ww_S [11] $end
$var wire 1 r \~QUARTUS_CREATED_ADC1~_CHSEL_bus\ [4] $end
$var wire 1 s \~QUARTUS_CREATED_ADC1~_CHSEL_bus\ [3] $end
$var wire 1 t \~QUARTUS_CREATED_ADC1~_CHSEL_bus\ [2] $end
$var wire 1 u \~QUARTUS_CREATED_ADC1~_CHSEL_bus\ [1] $end
$var wire 1 v \~QUARTUS_CREATED_ADC1~_CHSEL_bus\ [0] $end
$var wire 1 w \~QUARTUS_CREATED_ADC2~_CHSEL_bus\ [4] $end
$var wire 1 x \~QUARTUS_CREATED_ADC2~_CHSEL_bus\ [3] $end
$var wire 1 y \~QUARTUS_CREATED_ADC2~_CHSEL_bus\ [2] $end
$var wire 1 z \~QUARTUS_CREATED_ADC2~_CHSEL_bus\ [1] $end
$var wire 1 { \~QUARTUS_CREATED_ADC2~_CHSEL_bus\ [0] $end
$var wire 1 | \~QUARTUS_CREATED_GND~I_combout\ $end
$var wire 1 } \~QUARTUS_CREATED_UNVM~~busy\ $end
$var wire 1 ~ \~QUARTUS_CREATED_ADC1~~eoc\ $end
$var wire 1 !! \~QUARTUS_CREATED_ADC2~~eoc\ $end
$var wire 1 "! \S[11]~output_o\ $end
$var wire 1 #! \S[10]~output_o\ $end
$var wire 1 $! \S[9]~output_o\ $end
$var wire 1 %! \S[8]~output_o\ $end
$var wire 1 &! \S[7]~output_o\ $end
$var wire 1 '! \S[6]~output_o\ $end
$var wire 1 (! \S[5]~output_o\ $end
$var wire 1 )! \S[4]~output_o\ $end
$var wire 1 *! \S[3]~output_o\ $end
$var wire 1 +! \S[2]~output_o\ $end
$var wire 1 ,! \S[1]~output_o\ $end
$var wire 1 -! \S[0]~output_o\ $end
$var wire 1 .! \A[11]~input_o\ $end
$var wire 1 /! \B[11]~input_o\ $end
$var wire 1 0! \gen_cells:11:cell_inst|S~0_combout\ $end
$var wire 1 1! \A[5]~input_o\ $end
$var wire 1 2! \B[4]~input_o\ $end
$var wire 1 3! \A[4]~input_o\ $end
$var wire 1 4! \B[3]~input_o\ $end
$var wire 1 5! \A[3]~input_o\ $end
$var wire 1 6! \A[2]~input_o\ $end
$var wire 1 7! \B[2]~input_o\ $end
$var wire 1 8! \B[1]~input_o\ $end
$var wire 1 9! \B[0]~input_o\ $end
$var wire 1 :! \A[0]~input_o\ $end
$var wire 1 ;! \A[1]~input_o\ $end
$var wire 1 <! \gen_cells:1:cell_inst|Cout~0_combout\ $end
$var wire 1 =! \gen_cells:2:cell_inst|Cout~0_combout\ $end
$var wire 1 >! \gen_cells:3:cell_inst|Cout~0_combout\ $end
$var wire 1 ?! \gen_cells:4:cell_inst|Cout~0_combout\ $end
$var wire 1 @! \B[5]~input_o\ $end
$var wire 1 A! \gen_cells:5:cell_inst|Cout~0_combout\ $end
$var wire 1 B! \B[6]~input_o\ $end
$var wire 1 C! \A[6]~input_o\ $end
$var wire 1 D! \gen_cells:6:cell_inst|Cout~0_combout\ $end
$var wire 1 E! \A[7]~input_o\ $end
$var wire 1 F! \B[7]~input_o\ $end
$var wire 1 G! \gen_cells:7:cell_inst|Cout~0_combout\ $end
$var wire 1 H! \A[8]~input_o\ $end
$var wire 1 I! \B[8]~input_o\ $end
$var wire 1 J! \gen_cells:8:cell_inst|Cout~0_combout\ $end
$var wire 1 K! \A[9]~input_o\ $end
$var wire 1 L! \B[9]~input_o\ $end
$var wire 1 M! \gen_cells:9:cell_inst|Cout~0_combout\ $end
$var wire 1 N! \A[10]~input_o\ $end
$var wire 1 O! \B[10]~input_o\ $end
$var wire 1 P! \gen_cells:11:cell_inst|S~combout\ $end
$var wire 1 Q! \gen_cells:10:cell_inst|S~combout\ $end
$var wire 1 R! \gen_cells:9:cell_inst|S~combout\ $end
$var wire 1 S! \gen_cells:8:cell_inst|S~combout\ $end
$var wire 1 T! \gen_cells:7:cell_inst|S~combout\ $end
$var wire 1 U! \gen_cells:6:cell_inst|S~combout\ $end
$var wire 1 V! \gen_cells:5:cell_inst|S~combout\ $end
$var wire 1 W! \gen_cells:4:cell_inst|S~combout\ $end
$var wire 1 X! \gen_cells:3:cell_inst|S~combout\ $end
$var wire 1 Y! \gen_cells:2:cell_inst|S~0_combout\ $end
$var wire 1 Z! \gen_cells:1:cell_inst|S~0_combout\ $end
$var wire 1 [! \gen_cells:0:cell_inst|Cout~0_combout\ $end
$upscope $end
$upscope $end
$enddefinitions $end
#0
$dumpvars
0E
1F
xG
1H
1I
1J
1K
1L
1M
0|
z}
z~
z!!
1"!
0#!
0$!
1%!
0&!
1'!
1(!
0)!
1*!
1+!
0,!
0-!
1.!
1/!
00!
01!
02!
03!
14!
05!
16!
07!
08!
09!
0:!
0;!
0<!
0=!
0>!
0?!
1@!
0A!
1B!
0C!
0D!
1E!
1F!
1G!
1H!
1I!
1J!
0K!
1L!
1M!
0N!
1O!
1P!
0Q!
0R!
1S!
0T!
1U!
1V!
0W!
1X!
1Y!
0Z!
0[!
0!
0"
1#
0$
0%
0&
0'
1(
1)
0*
0+
1,
0-
0.
0/
10
01
12
13
14
15
16
17
18
0N
0O
1P
0Q
0R
0S
0T
1U
1V
0W
0X
1Y
0Z
0[
0\
1]
0^
1_
1`
1a
1b
1c
1d
1e
0f
0g
1h
1i
0j
1k
1l
0m
1n
0o
0p
1q
0r
0s
0t
0u
0v
0w
0x
0y
0z
0{
09
0:
1;
1<
0=
1>
1?
0@
1A
0B
0C
1D
$end
#100000
0)
1%
1$
0#
1!
08
06
05
04
02
11
1/
1.
0V
1R
1Q
0P
1N
0e
0c
0b
0a
0_
1^
1\
1[
18!
17!
12!
0@!
0F!
0I!
0L!
0/!
1:!
06!
15!
13!
0H!
1>!
0X!
1[!
10!
0M!
1R!
0J!
0G!
1T!
0V!
1?!
1Z!
1,!
0(!
1&!
1$!
1-!
0*!
1V!
0S!
0R!
1Q!
1W!
1g
0k
1m
1o
1f
0i
1)!
1#!
0$!
0%!
1(!
1B
1@
0>
0<
1:
19
1j
1p
0o
0n
1k
1C
0B
0A
1>
1=
#200000
1)
1#
0!
18
16
15
0/
0.
1&
07
1-
1V
1S
1P
0N
1e
0d
1c
1b
0\
0[
1Z
19!
08!
07!
1I!
1L!
0O!
1/!
0:!
16!
11!
1H!
1A!
0V!
00!
0Q!
1R!
1J!
0Z!
0,!
1$!
0#!
0(!
1M!
0R!
0P!
1D!
0U!
0g
1o
0p
0k
0'!
0"!
0$!
1G!
0T!
1Q!
0C
1B
0>
0:
0l
0q
0o
1#!
0&!
1S!
0D
0B
0?
1p
0m
1%!
1C
0@
1n
1A
#300000
1!
08
1/
0&
17
0-
14
1+
0(
1"
03
00
1X
0U
0S
1O
1N
0e
1d
1a
0`
0]
1\
0Z
09!
17!
04!
0B!
1F!
1O!
0/!
1:!
1;!
01!
0E!
1N!
0A!
1V!
10!
1P!
0D!
1U!
0>!
1X!
1=!
0Y!
1Z!
1,!
0+!
1*!
1'!
1"!
1(!
1>!
0X!
0W!
0G!
1T!
0P!
0U!
1g
0h
1i
1l
1q
1k
0'!
0"!
1&!
0)!
0*!
0S!
1W!
1D
1?
1>
1<
0;
1:
0l
0q
1m
0j
0i
1)!
0%!
0D
1@
0?
0=
0<
1j
0n
0A
1=
#400000
0!
18
07
04
0+
1(
13
10
0#
06
05
1.
12
0,
1*
0Y
0X
1W
1U
0P
0N
1e
0d
0c
0b
0a
1`
1_
1]
1[
18!
14!
1@!
1B!
0F!
0I!
0L!
0O!
1/!
0:!
06!
1E!
1K!
0N!
0.!
0=!
1Y!
0[!
1P!
0J!
1S!
1U!
1A!
0V!
1X!
1<!
0Z!
0,!
1*!
0(!
1'!
1%!
1"!
0-!
1+!
1=!
0Y!
1D!
0U!
0M!
1R!
0X!
0g
1i
0k
1l
1n
1q
0f
1h
0*!
1$!
0'!
0+!
0Q!
1G!
0T!
1X!
1D
1A
1?
0>
1<
1;
0:
09
0i
1o
0l
0h
1*!
0&!
0#!
1J!
0S!
1B
0?
0<
0;
1i
0m
0p
0%!
1M!
0R!
0C
0@
1<
0n
0$!
1Q!
0A
0o
1#!
0B
1p
1C
#500000
1!
08
17
14
1+
0(
1#
02
1,
0*
0/
1&
0"
0)
0%
0$
1'
1Y
1X
0W
0V
0U
1T
1S
0R
0Q
1P
0O
1N
0e
1d
1a
0_
0\
07!
0@!
1F!
1O!
0/!
1:!
0;!
16!
05!
03!
11!
1C!
0E!
0H!
0K!
1N!
1.!
0M!
1R!
0J!
1S!
1U!
0W!
0X!
0<!
1Z!
1[!
0P!
0"!
1-!
1,!
0*!
0)!
1'!
1%!
1$!
0=!
1Y!
0R!
0Q!
0q
1f
1g
0i
0j
1l
1n
1o
0#!
0$!
1+!
0>!
1X!
0D
1B
1A
1?
0=
0<
1:
19
0p
0o
1h
1*!
0?!
1W!
0C
0B
1;
1i
1)!
0A!
1V!
1<
1j
1(!
0U!
1=
1k
0'!
1>
0l
0?
#600000
0!
07
1*
1/
1%
1$
16
0.
1W
1R
1Q
0N
0d
1c
1\
0[
08!
17!
1L!
0O!
0:!
15!
13!
1K!
1?!
0W!
1>!
0X!
0[!
1P!
1Q!
1M!
1=!
0Y!
0Z!
0,!
0+!
1#!
1"!
0-!
0*!
0)!
1X!
0P!
0Q!
1W!
1A!
0V!
0g
0h
1p
1q
0f
0i
0j
0(!
1)!
0#!
0"!
1*!
1U!
1D
1C
0=
0<
0;
0:
09
0k
1j
0p
0q
1i
1'!
0D
0C
0>
1=
1<
1l
1?
#700000
1!
17
0/
0%
0$
06
04
12
0&
1"
0'
03
00
15
01
0T
0S
0R
0Q
1O
1N
1d
0c
1b
0a
0`
1_
0^
0]
0\
07!
04!
02!
1@!
0B!
0F!
1I!
0L!
1O!
1:!
1;!
05!
03!
01!
0C!
1Z!
1[!
1Q!
0M!
1R!
1J!
0S!
0G!
1T!
0D!
0?!
0>!
0=!
1Y!
1+!
1&!
0%!
1$!
1#!
1-!
1,!
0X!
0W!
0A!
1V!
0T!
0J!
1S!
1M!
0R!
0Q!
1h
1m
0n
1o
1p
1f
1g
0#!
0$!
1%!
0&!
1(!
0)!
0*!
1Q!
0M!
1R!
0U!
1C
1B
0A
1@
1;
1:
19
0p
0o
1n
0m
1k
0j
0i
0'!
1$!
1#!
0Q!
0C
0B
1A
0@
1>
0=
0<
0l
1o
1p
0#!
1C
1B
0?
0p
0C
#800000
0!
1/
1$
1&
13
10
05
11
0*
18
0+
0,
1)
1-
0Y
0X
0W
1V
1S
1Q
0N
1e
0b
1`
1^
1]
1\
1Z
19!
17!
14!
12!
1B!
0I!
1/!
0:!
15!
11!
1H!
0K!
0N!
0.!
1P!
1Q!
0R!
1A!
0V!
1U!
1W!
1>!
1=!
0Y!
0+!
1)!
1'!
0(!
0$!
1#!
1"!
1X!
1?!
0W!
1D!
0U!
0h
1j
1l
0k
0o
1p
1q
0'!
0)!
1*!
1T!
1V!
1D
1C
0B
1?
0>
1=
0;
0l
0j
1i
1(!
1&!
0?
0=
1<
1k
1m
1@
1>
#900000
00
1*
08
1,
0)
0-
1%
16
14
1'
0#
0e
1c
1a
0]
0Z
1Y
1W
0V
1T
1R
0P
06!
13!
1C!
0H!
1K!
1.!
09!
04!
1F!
1L!
0/!
1G!
0T!
0X!
0[!
1M!
0S!
1U!
1W!
0=!
1Y!
1+!
1)!
1'!
0%!
0-!
0*!
0&!
0>!
1X!
0P!
0Q!
1S!
1h
1j
1l
0n
0f
0i
0m
1%!
0#!
0"!
1*!
0W!
0A
0@
1?
1=
0<
1;
09
1n
0p
0q
1i
0)!
0D
0C
1A
1<
0j
0=
